{
  "bg0": "#191724",
  "bg1": "#1f1d2e",
  "bg2": "#21202e",
  "bg3": "#26233a",
  "bg4": "#403d52",
  "bg5": "#524f67",
  "fg0": "#6e6a86",
  "fg1": "#908caa",
  "fg2": "#e0def4",
  "red": "#eb6f92",
  "orange": "#ebbcba",
  "yellow": "#f6c177",
  "green": "#9ccfd8",
  "cyan": "#77d7ff",
  "blue": "#31748f",
  "purple": "#c4a7e7"
}
